<?xml version="1.0" encoding="UTF-8"?>
<svg width="444px" height="146px" viewBox="0 0 444 146" version="1.1" xmlns="http://www.w3.org/2000/svg" xmlns:xlink="http://www.w3.org/1999/xlink">
    <!-- Generator: Sketch 48.2 (47327) - http://www.bohemiancoding.com/sketch -->
    <title>2002</title>
    <desc>Created with Sketch.</desc>
    <defs></defs>
    <g id="2002" stroke="none" stroke-width="1" fill="none" fill-rule="evenodd" transform="translate(-855.000000, -927.000000)">
        <path d="M946.01,1070 L855.5,1070 L906.53,1010.99 C910.1,1006.79 919.55,995.66 922.91,990.62 C929.21,981.59 930.68,974.87 930.68,969.2 C930.68,953.45 919.34,941.9 902.75,941.9 C892.88,941.9 884.69,946.31 879.44,954.29 C876.71,958.49 875.03,963.74 874.82,970.88 L859.28,970.88 C859.91,956.81 864.32,948.2 869.78,941.9 C875.66,935.18 885.53,927.62 902.96,927.62 C927.74,927.62 946.22,945.26 946.22,969.41 C946.22,978.86 943.49,987.47 935.09,999.44 C929.21,1007.63 921.65,1016.24 915.98,1022.75 L886.79,1055.72 L946.01,1055.72 L946.01,1070 Z M1018.67,1072.52 C1007.54,1072.52 993.47,1067.06 982.76,1051.52 C973.52,1038.08 968.69,1020.02 968.69,1000.07 C968.69,980.12 973.52,962.06 982.76,948.62 C993.47,933.08 1007.54,927.62 1018.67,927.62 C1029.8,927.62 1043.87,933.08 1054.58,948.62 C1063.82,962.06 1068.65,980.12 1068.65,1000.07 C1068.65,1020.02 1063.82,1038.08 1054.58,1051.52 C1043.87,1067.06 1029.8,1072.52 1018.67,1072.52 Z M1018.67,941.9 C1011.53,941.9 1001.87,945.68 994.52,957.44 C986.96,969.41 984.23,985.37 984.23,1000.07 C984.23,1014.77 986.96,1030.73 994.52,1042.7 C1001.87,1054.46 1011.53,1058.24 1018.67,1058.24 C1025.81,1058.24 1035.47,1054.46 1042.82,1042.7 C1050.38,1030.73 1053.11,1014.77 1053.11,1000.07 C1053.11,985.37 1050.38,969.41 1042.82,957.44 C1035.47,945.68 1025.81,941.9 1018.67,941.9 Z M1137.95,1072.52 C1126.82,1072.52 1112.75,1067.06 1102.04,1051.52 C1092.8,1038.08 1087.97,1020.02 1087.97,1000.07 C1087.97,980.12 1092.8,962.06 1102.04,948.62 C1112.75,933.08 1126.82,927.62 1137.95,927.62 C1149.08,927.62 1163.15,933.08 1173.86,948.62 C1183.1,962.06 1187.93,980.12 1187.93,1000.07 C1187.93,1020.02 1183.1,1038.08 1173.86,1051.52 C1163.15,1067.06 1149.08,1072.52 1137.95,1072.52 Z M1137.95,941.9 C1130.81,941.9 1121.15,945.68 1113.8,957.44 C1106.24,969.41 1103.51,985.37 1103.51,1000.07 C1103.51,1014.77 1106.24,1030.73 1113.8,1042.7 C1121.15,1054.46 1130.81,1058.24 1137.95,1058.24 C1145.09,1058.24 1154.75,1054.46 1162.1,1042.7 C1169.66,1030.73 1172.39,1014.77 1172.39,1000.07 C1172.39,985.37 1169.66,969.41 1162.1,957.44 C1154.75,945.68 1145.09,941.9 1137.95,941.9 Z M1298.6,1070 L1208.09,1070 L1259.12,1010.99 C1262.69,1006.79 1272.14,995.66 1275.5,990.62 C1281.8,981.59 1283.27,974.87 1283.27,969.2 C1283.27,953.45 1271.93,941.9 1255.34,941.9 C1245.47,941.9 1237.28,946.31 1232.03,954.29 C1229.3,958.49 1227.62,963.74 1227.41,970.88 L1211.87,970.88 C1212.5,956.81 1216.91,948.2 1222.37,941.9 C1228.25,935.18 1238.12,927.62 1255.55,927.62 C1280.33,927.62 1298.81,945.26 1298.81,969.41 C1298.81,978.86 1296.08,987.47 1287.68,999.44 C1281.8,1007.63 1274.24,1016.24 1268.57,1022.75 L1239.38,1055.72 L1298.6,1055.72 L1298.6,1070 Z" fill="#000000"></path>
    </g>
</svg>